Distance-based learning with manydist and tidymodels
…
  if (!"error" %in% names(out)) out$error <- NA_character_
  out
})

phil_checks

# A tibble: 46 × 11
   method     ok    dist_any_na dist_any_inf dist_sym delta_any_na delta_any_inf
   <chr>      <lgl> <lgl>       <lgl>        <lgl>    <lgl>        <lgl>        
 1 euclidean  TRUE  FALSE       FALSE        TRUE     FALSE        FALSE        
 2 manhattan  TRUE  FALSE       FALSE        TRUE     FALSE        FALSE        
 3 minkowski  TRUE  FALSE       FALSE        TRUE     FALSE        FALSE        
 4 chebyshev  TRUE  FALSE       FALSE        TRUE     FALSE        FALSE        
 5 sorensen   TRUE  FALSE       FALSE        TRUE     FALSE        FALSE        
 6 gower      TRUE  FALSE       FALSE        TRUE     FALSE        FALSE        
 7 soergel    TRUE  FALSE       FALSE        TRUE     FALSE        FALSE        
 8 kulczynsk… TRUE  FALSE       FALSE        TRUE     FALSE        FALSE        
 9 canberra   TRUE  FALSE       FALSE        TRUE     FALSE        FALSE        
10 lorentzian TRUE  FALSE       FALSE        TRUE     FALSE        FALSE        
# ℹ 36 more rows
# ℹ 4 more variables: delta_sym <lgl>, dist_min <dbl>, dist_max <dbl>,
#   error <chr>
…
  if (!"error" %in% names(out)) out$error <- NA_character_
  out
})

phil_checks_comm

# A tibble: 46 × 11
   method     ok    dist_any_na dist_any_inf dist_sym delta_any_na delta_any_inf
   <chr>      <lgl> <lgl>       <lgl>        <lgl>    <lgl>        <lgl>        
 1 euclidean  TRUE  FALSE       FALSE        TRUE     FALSE        FALSE        
 2 manhattan  TRUE  FALSE       FALSE        TRUE     FALSE        FALSE        
 3 minkowski  TRUE  FALSE       FALSE        TRUE     FALSE        FALSE        
 4 chebyshev  TRUE  FALSE       FALSE        TRUE     FALSE        FALSE        
 5 sorensen   TRUE  FALSE       FALSE        TRUE     FALSE        FALSE        
 6 gower      TRUE  FALSE       FALSE        TRUE     FALSE        FALSE        
 7 soergel    TRUE  FALSE       FALSE        TRUE     FALSE        FALSE        
 8 kulczynsk… TRUE  FALSE       FALSE        TRUE     FALSE        FALSE        
 9 canberra   TRUE  FALSE       FALSE        TRUE     FALSE        FALSE        
10 lorentzian TRUE  FALSE       FALSE        TRUE     FALSE        FALSE        
# ℹ 36 more rows
# ℹ 4 more variables: delta_sym <lgl>, dist_min <dbl>, dist_max <dbl>,
#   error <chr>
…
