…
  rec_pairwise_prep <- recipes::prep(rec_pairwise, training = penguins_small)
  pairwise_dist <- recipes::bake(rec_pairwise_prep, new_data = penguins_small)

  pairwise_dist
}
#> Warning: When `preset` is not 'custom', distance-related arguments are ignored: `commensurable`, `method_num`. Set `preset = 'custom'` to specify them manually.
#> Warning: When `preset` is not 'custom', distance-related arguments are ignored: `commensurable`, `method_num`. Set `preset = 'custom'` to specify them manually.
#> # A tibble: 333 × 333
#>    dist_1 dist_2 dist_3 dist_4 dist_5 dist_6 dist_7 dist_8 dist_9 dist_10
#>     <dbl>  <dbl>  <dbl>  <dbl>  <dbl>  <dbl>  <dbl>  <dbl>  <dbl>   <dbl>
#>  1 0      0.181  0.215  0.206  0.0591 0.164  0.0864 0.196  0.0713  0.131 
#>  2 0.181  0      0.0580 0.0777 0.214  0.0290 0.238  0.0452 0.224   0.284 
#>  3 0.215  0.0580 0      0.0536 0.220  0.0595 0.232  0.0444 0.238   0.278 
#>  4 0.206  0.0777 0.0536 0      0.194  0.0729 0.214  0.0883 0.204   0.234 
#>  5 0.0591 0.214  0.220  0.194  0      0.215  0.0703 0.240  0.0222  0.0821
#>  6 0.164  0.0290 0.0595 0.0729 0.215  0      0.251  0.0341 0.233   0.293 
#>  7 0.0864 0.238  0.232  0.214  0.0703 0.251  0      0.277  0.0747  0.0676
#>  8 0.196  0.0452 0.0444 0.0883 0.240  0.0341 0.277  0      0.263   0.323 
#>  9 0.0713 0.224  0.238  0.204  0.0222 0.233  0.0747 0.263  0       0.0632
#> 10 0.131  0.284  0.278  0.234  0.0821 0.293  0.0676 0.323  0.0632  0     
#> # ℹ 323 more rows
#> # ℹ 323 more variables: dist_11 <dbl>, dist_12 <dbl>, dist_13 <dbl>,
#> #   dist_14 <dbl>, dist_15 <dbl>, dist_16 <dbl>, dist_17 <dbl>, dist_18 <dbl>,
#> #   dist_19 <dbl>, dist_20 <dbl>, dist_21 <dbl>, dist_22 <dbl>, dist_23 <dbl>,
#> #   dist_24 <dbl>, dist_25 <dbl>, dist_26 <dbl>, dist_27 <dbl>, dist_28 <dbl>,
#> #   dist_29 <dbl>, dist_30 <dbl>, dist_31 <dbl>, dist_32 <dbl>, dist_33 <dbl>,
#> #   dist_34 <dbl>, dist_35 <dbl>, dist_36 <dbl>, dist_37 <dbl>, …
```
